{
    "nextId": 6,
    "items": [
        {
            "id": 1,
            "name": "Obolon",
            "linecolor": "Blue",
            "numberOfExits": 2,
            "stationNumber": 3,
            "openDate": "2005-06-24T21:00:00.000Z"
        },
        {
            "id": 3,
            "name": "Arsenalna",
            "linecolor": "Red",
            "numberOfExits": 1,
            "stationNumber": 12,
            "openDate": "2000-03-12T22:00:00.000Z"
        },
        {
            "id": 5,
            "name": "Minska",
            "linecolor": "Blue",
            "numberOfExits": 2,
            "stationNumber": 4,
            "openDate": "2002-06-14T21:00:00.000Z"
        }
    ]
}